[
{
      "version":"{{ .Values.rsync.configVersion }}",
      "sourcePath":"rsync@{{ .Values.rsyncd.service.name }}.{{ .Release.Namespace }}.svc{{ template "appendDnsPostfix" . }}:/source_data/chf/product-config",
      "destinationPath":"/opt/deploy/SBA/config"
}
{{- if eq (include "chf.IsSubscriberTracingEnabled" .) "true" -}}
,
{
      "version":"{{ .Values.rsync.configVersion }}",
      "sourcePath":"rsync@{{ .Values.rsyncd.service.name }}.{{ .Release.Namespace }}.svc{{ template "appendDnsPostfix" . }}:/source_data/chf/product-config",
      "destinationPath":"/opt/deploy/SBA/config"
}
{{- end -}}
]

