[
{
      "version": "{{ .Values.rsync.configVersion }}",
      "sourcePath": "rsync@{{ .Values.rsyncd.service.name }}.{{ .Release.Namespace }}.svc{{ template "appendDnsPostfix" . }}:/source_data/drb/framework/Statistics_Management",
       "destinationPath": "/opt/forge/drb/home/config/runtime_config/framework/"
}
{{ if eq .Values.context.subscriber_tracing.enabled true }}
,
{
      "version": "{{ .Values.rsync.configVersion }}",
      "sourcePath": "rsync@{{ .Values.rsyncd.service.name }}.{{ .Release.Namespace }}.svc{{ template "appendDnsPostfix" . }}:/source_data/drb/business_rules/subscriber_tracing",
      "destinationPath": "/opt/forge/drb/home/config/runtime_config/business_rules/"
}
{{end}}
]
