{
  "annotations": {
    "list": [
      {
        "builtIn": 1,
        "datasource": "-- Grafana --",
        "enable": true,
        "hide": true,
        "iconColor": "rgba(0, 211, 255, 1)",
        "name": "Annotations & Alerts",
        "type": "dashboard"
      }
    ]
  },
  "editable": true,
  "gnetId": null,
  "graphTooltip": 0,
  "id": 24,
  "iteration": 1573550012220,
  "links": [
    {
      "icon": "external link",
      "tags": [
        "HOME"
      ],
      "type": "dashboards"
    },
    {
      "icon": "external link",
      "tags": [
        "LANDING"
      ],
      "type": "dashboards"
    }
  ],
  "panels": [
    {
      "collapsed": false,
      "gridPos": {
        "h": 1,
        "w": 24,
        "x": 0,
        "y": 0
      },
      "id": 64,
      "panels": [],
      "title": "Threadpool",
      "type": "row"
    },
    {
      "collapsed": false,
      "gridPos": {
        "h": 1,
        "w": 24,
        "x": 0,
        "y": 1
      },
      "id": 66,
      "panels": [],
      "title": "Charging (DRB)",
      "type": "row"
    },
    {
      "aliasColors": {},
      "bars": false,
      "dashLength": 10,
      "dashes": false,
      "datasource": "openet-fw-stats",
      "fill": 0,
      "gridPos": {
        "h": 7,
        "w": 24,
        "x": 0,
        "y": 2
      },
      "id": 28,
      "interval": "1m",
      "legend": {
        "avg": false,
        "current": false,
        "max": false,
        "min": false,
        "show": true,
        "total": false,
        "values": false
      },
      "lines": true,
      "linewidth": 1,
      "links": [],
      "nullPointMode": "null as zero",
      "percentage": false,
      "pointradius": 5,
      "points": false,
      "renderer": "flot",
      "seriesOverrides": [],
      "spaceLength": 10,
      "stack": false,
      "steppedLine": false,
      "targets": [
        {
          "bucketAggs": [
            {
              "fake": true,
              "field": "INSTALLATION_ID.keyword",
              "id": "4",
              "settings": {
                "min_doc_count": 1,
                "order": "desc",
                "orderBy": "_term",
                "size": "10"
              },
              "type": "terms"
            },
            {
              "fake": true,
              "field": "beat.hostname.keyword",
              "id": "4",
              "settings": {
                "min_doc_count": 1,
                "order": "desc",
                "orderBy": "_term",
                "size": "10"
              },
              "type": "terms"
            },
            {
              "fake": true,
              "id": "3",
              "query": "*",
              "settings": {
                "filters": [
                  {
                    "label": "Total Answer Sent",
                    "query": "STATISTIC_NAME.keyword:DBP_Total_Answer_Sent_Count AND ASSOCIATED_NAME.keyword:*CCA"
                  },
                  {
                    "label": "Total Answer Received",
                    "query": "STATISTIC_NAME.keyword:DBP_Total_Answer_Received_Count AND ASSOCIATED_NAME.keyword:*CEA"
                  },
                  {
                    "label": "Total Request Sent",
                    "query": "STATISTIC_NAME.keyword:DBP_Total_Request_Sent_Count AND ASSOCIATED_NAME.keyword:*CER"
                  },
                  {
                    "label": "Total Request Received",
                    "query": "STATISTIC_NAME.keyword:DBP_Total_Request_Received_Count AND ASSOCIATED_NAME.keyword:*CCR"
                  }
                ]
              },
              "type": "filters"
            },
            {
              "field": "@timestamp",
              "id": "2",
              "settings": {
                "interval": "65s",
                "min_doc_count": 0,
                "trimEdges": 0
              },
              "type": "date_histogram"
            }
          ],
          "hide": false,
          "metrics": [
            {
              "field": "NUMERIC_VALUE",
              "id": "1",
              "meta": {},
              "settings": {},
              "type": "sum"
            }
          ],
          "query": "INSTALLATION_ID.keyword: $INSTALLATION_ID",
          "refId": "A",
          "timeField": "@timestamp"
        }
      ],
      "thresholds": [],
      "timeFrom": null,
      "timeShift": null,
      "title": "Charging (DRB) Total Messages Count",
      "tooltip": {
        "shared": true,
        "sort": 0,
        "value_type": "individual"
      },
      "type": "graph",
      "xaxis": {
        "buckets": null,
        "mode": "time",
        "name": null,
        "show": true,
        "values": []
      },
      "yaxes": [
        {
          "format": "locale",
          "label": null,
          "logBase": 1,
          "max": null,
          "min": null,
          "show": true
        },
        {
          "format": "short",
          "label": null,
          "logBase": 1,
          "max": null,
          "min": null,
          "show": true
        }
      ],
      "yaxis": {
        "align": false,
        "alignLevel": null
      }
    },
    {
      "aliasColors": {},
      "bars": false,
      "dashLength": 10,
      "dashes": false,
      "datasource": "openet-fw-stats",
      "fill": 0,
      "gridPos": {
        "h": 6,
        "w": 24,
        "x": 0,
        "y": 9
      },
      "id": 75,
      "interval": "1m",
      "legend": {
        "avg": false,
        "current": false,
        "hideEmpty": false,
        "hideZero": false,
        "max": false,
        "min": false,
        "show": true,
        "total": false,
        "values": false
      },
      "lines": true,
      "linewidth": 1,
      "links": [],
      "nullPointMode": "null as zero",
      "percentage": false,
      "pointradius": 5,
      "points": false,
      "renderer": "flot",
      "seriesOverrides": [],
      "spaceLength": 10,
      "stack": false,
      "steppedLine": false,
      "targets": [
        {
          "bucketAggs": [
            {
              "fake": true,
              "field": "INSTALLATION_ID.keyword",
              "id": "3",
              "settings": {
                "min_doc_count": 1,
                "order": "desc",
                "orderBy": "_term",
                "size": "10"
              },
              "type": "terms"
            },
            {
              "fake": true,
              "field": "beat.hostname.keyword",
              "id": "4",
              "settings": {
                "min_doc_count": 1,
                "order": "desc",
                "orderBy": "_term",
                "size": "10"
              },
              "type": "terms"
            },
            {
              "fake": true,
              "id": "4",
              "query": "*",
              "settings": {
                "filters": [
                  {
                    "label": "CCR TPS",
                    "query": "STATISTIC_NAME.keyword:DRBDiameterToRestRoundtripPerformance"
                  },
                  {
                    "label": "CCR-I TPS",
                    "query": "STATISTIC_NAME.keyword:DRBDiameterToRestRoundtrip_Init"
                  },
                  {
                    "label": "CCR-U TPS",
                    "query": "STATISTIC_NAME.keyword:DRBDiameterToRestRoundtrip_Update"
                  },
                  {
                    "label": "CCR-T TPS",
                    "query": "STATISTIC_NAME.keyword:DRBDiameterToRestRoundtrip_Terminate"
                  }
                ]
              },
              "type": "filters"
            },
            {
              "field": "@timestamp",
              "id": "2",
              "settings": {
                "interval": "65s",
                "min_doc_count": 0,
                "trimEdges": 0
              },
              "type": "date_histogram"
            }
          ],
          "hide": false,
          "metrics": [
            {
              "field": "TPS",
              "id": "1",
              "meta": {},
              "settings": {},
              "type": "max"
            }
          ],
          "query": "INSTALLATION_ID.keyword: $INSTALLATION_ID",
          "refId": "A",
          "timeField": "@timestamp"
        }
      ],
      "thresholds": [],
      "timeFrom": null,
      "timeShift": null,
      "title": "Charging (DRB) Diameter to REST Roundtrip TPS",
      "tooltip": {
        "shared": true,
        "sort": 0,
        "value_type": "individual"
      },
      "type": "graph",
      "xaxis": {
        "buckets": null,
        "mode": "time",
        "name": null,
        "show": true,
        "values": []
      },
      "yaxes": [
        {
          "format": "short",
          "label": null,
          "logBase": 1,
          "max": null,
          "min": null,
          "show": true
        },
        {
          "format": "short",
          "label": null,
          "logBase": 1,
          "max": null,
          "min": null,
          "show": true
        }
      ],
      "yaxis": {
        "align": false,
        "alignLevel": null
      }
    },
    {
      "aliasColors": {},
      "bars": false,
      "dashLength": 10,
      "dashes": false,
      "datasource": "openet-fw-stats",
      "fill": 0,
      "gridPos": {
        "h": 5,
        "w": 12,
        "x": 0,
        "y": 15
      },
      "id": 74,
      "interval": "1m",
      "legend": {
        "avg": false,
        "current": false,
        "max": false,
        "min": false,
        "show": true,
        "total": false,
        "values": false
      },
      "lines": true,
      "linewidth": 1,
      "links": [],
      "nullPointMode": "null as zero",
      "percentage": false,
      "pointradius": 5,
      "points": false,
      "renderer": "flot",
      "seriesOverrides": [],
      "spaceLength": 10,
      "stack": false,
      "steppedLine": false,
      "targets": [
        {
          "bucketAggs": [
            {
              "fake": true,
              "field": "INSTALLATION_ID.keyword",
              "id": "3",
              "settings": {
                "min_doc_count": 1,
                "order": "desc",
                "orderBy": "_term",
                "size": "10"
              },
              "type": "terms"
            },
            {
              "fake": true,
              "field": "beat.hostname.keyword",
              "id": "4",
              "settings": {
                "min_doc_count": 1,
                "order": "desc",
                "orderBy": "_term",
                "size": "10"
              },
              "type": "terms"
            },
            {
              "fake": true,
              "id": "4",
              "query": "*",
              "settings": {
                "filters": [
                  {
                    "label": "CCR Latency",
                    "query": "STATISTIC_NAME.keyword:DRBDiameterToRestRoundtripPerformance"
                  },
                  {
                    "label": "CCR-I Latency",
                    "query": "STATISTIC_NAME.keyword:DRBDiameterToRestRoundtrip_Init"
                  },
                  {
                    "label": "CCR-U Latency",
                    "query": "STATISTIC_NAME.keyword:DRBDiameterToRestRoundtrip_Update"
                  },
                  {
                    "label": "CCR-T Latency",
                    "query": "STATISTIC_NAME.keyword:DRBDiameterToRestRoundtrip_Terminate"
                  }
                ]
              },
              "type": "filters"
            },
            {
              "field": "@timestamp",
              "id": "2",
              "settings": {
                "interval": "65s",
                "min_doc_count": 0,
                "trimEdges": 0
              },
              "type": "date_histogram"
            }
          ],
          "hide": false,
          "metrics": [
            {
              "field": "AVERAGE_LATENCY",
              "id": "1",
              "meta": {},
              "settings": {},
              "type": "max"
            }
          ],
          "query": "INSTALLATION_ID.keyword: $INSTALLATION_ID",
          "refId": "A",
          "timeField": "@timestamp"
        }
      ],
      "thresholds": [],
      "timeFrom": null,
      "timeShift": null,
      "title": "Charging (DRB) Diameter To REST Roundtrip Latency",
      "tooltip": {
        "shared": true,
        "sort": 0,
        "value_type": "individual"
      },
      "type": "graph",
      "xaxis": {
        "buckets": null,
        "mode": "time",
        "name": null,
        "show": true,
        "values": []
      },
      "yaxes": [
        {
          "format": "µs",
          "label": null,
          "logBase": 1,
          "max": null,
          "min": null,
          "show": true
        },
        {
          "format": "short",
          "label": null,
          "logBase": 1,
          "max": null,
          "min": null,
          "show": true
        }
      ],
      "yaxis": {
        "align": false,
        "alignLevel": null
      }
    },
    {
      "cacheTimeout": null,
      "colorBackground": false,
      "colorValue": true,
      "colors": [
        "rgb(32, 28, 36)",
        "rgb(32, 28, 36)",
        "#d44a3a"
      ],
      "datasource": "openet-fw-stats",
      "format": "µs",
      "gauge": {
        "maxValue": 100,
        "minValue": 0,
        "show": false,
        "thresholdLabels": false,
        "thresholdMarkers": true
      },
      "gridPos": {
        "h": 4,
        "w": 12,
        "x": 12,
        "y": 15
      },
      "id": 71,
      "interval": "1m",
      "links": [],
      "mappingType": 1,
      "mappingTypes": [
        {
          "name": "value to text",
          "value": 1
        },
        {
          "name": "range to text",
          "value": 2
        }
      ],
      "maxDataPoints": 100,
      "nullPointMode": "connected",
      "nullText": null,
      "postfix": "",
      "postfixFontSize": "50%",
      "prefix": "",
      "prefixFontSize": "50%",
      "rangeMaps": [
        {
          "from": "null",
          "text": "N/A",
          "to": "null"
        }
      ],
      "sparkline": {
        "fillColor": "#0a437c",
        "full": false,
        "lineColor": "#0a437c",
        "show": true
      },
      "tableColumn": "",
      "targets": [
        {
          "bucketAggs": [
            {
              "fake": true,
              "id": "3",
              "query": "*",
              "settings": {
                "filters": [
                  {
                    "label": "Roundtrip latency",
                    "query": "STATISTIC_NAME.keyword:DRBDiameterToRestRoundtripPerformance"
                  }
                ]
              },
              "type": "filters"
            },
            {
              "field": "@timestamp",
              "id": "2",
              "settings": {
                "interval": "auto",
                "min_doc_count": 0,
                "trimEdges": 0
              },
              "type": "date_histogram"
            }
          ],
          "metrics": [
            {
              "field": "MAX_LATENCY",
              "id": "1",
              "meta": {},
              "settings": {},
              "type": "max"
            }
          ],
          "query": "INSTALLATION_ID.keyword: $INSTALLATION_ID",
          "refId": "A",
          "timeField": "@timestamp"
        }
      ],
      "thresholds": "2,1800000",
      "title": "Charging (DRB) Diameter to REST Roundtrip Max Latency",
      "type": "singlestat",
      "valueFontSize": "80%",
      "valueMaps": [
        {
          "op": "=",
          "text": "N/A",
          "value": "null"
        }
      ],
      "valueName": "max"
    },
    {
      "aliasColors": {},
      "bars": false,
      "dashLength": 10,
      "dashes": false,
      "datasource": "openet-fw-stats",
      "fill": 0,
      "gridPos": {
        "h": 5,
        "w": 24,
        "x": 0,
        "y": 20
      },
      "id": 80,
      "interval": "1m",
      "legend": {
        "avg": false,
        "current": false,
        "hideEmpty": false,
        "hideZero": false,
        "max": false,
        "min": false,
        "show": true,
        "total": false,
        "values": false
      },
      "lines": true,
      "linewidth": 1,
      "links": [],
      "nullPointMode": "null as zero",
      "percentage": false,
      "pointradius": 5,
      "points": false,
      "renderer": "flot",
      "seriesOverrides": [],
      "spaceLength": 10,
      "stack": false,
      "steppedLine": false,
      "targets": [
        {
          "bucketAggs": [
            {
              "fake": true,
              "field": "INSTALLATION_ID.keyword",
              "id": "3",
              "settings": {
                "min_doc_count": 1,
                "order": "desc",
                "orderBy": "_term",
                "size": "10"
              },
              "type": "terms"
            },
            {
              "fake": true,
              "field": "beat.hostname.keyword",
              "id": "4",
              "settings": {
                "min_doc_count": 1,
                "order": "desc",
                "orderBy": "_term",
                "size": "10"
              },
              "type": "terms"
            },
            {
              "fake": true,
              "id": "4",
              "query": "*",
              "settings": {
                "filters": [
                  {
                    "label": "notifyRequest TPS",
                    "query": "STATISTIC_NAME.keyword:DRBRestNotificationToDiameterRoundtripPerformance"
                  }
                ]
              },
              "type": "filters"
            },
            {
              "field": "@timestamp",
              "id": "2",
              "settings": {
                "interval": "65s",
                "min_doc_count": 0,
                "trimEdges": 0
              },
              "type": "date_histogram"
            }
          ],
          "hide": false,
          "metrics": [
            {
              "field": "TPS",
              "id": "1",
              "meta": {},
              "settings": {},
              "type": "max"
            }
          ],
          "query": "INSTALLATION_ID.keyword: $INSTALLATION_ID",
          "refId": "A",
          "timeField": "@timestamp"
        }
      ],
      "thresholds": [],
      "timeFrom": null,
      "timeShift": null,
      "title": "Charging (DRB) notifyRequest Roundtrip TPS",
      "tooltip": {
        "shared": true,
        "sort": 0,
        "value_type": "individual"
      },
      "type": "graph",
      "xaxis": {
        "buckets": null,
        "mode": "time",
        "name": null,
        "show": true,
        "values": []
      },
      "yaxes": [
        {
          "format": "short",
          "label": null,
          "logBase": 1,
          "max": null,
          "min": null,
          "show": true
        },
        {
          "format": "short",
          "label": null,
          "logBase": 1,
          "max": null,
          "min": null,
          "show": true
        }
      ],
      "yaxis": {
        "align": false,
        "alignLevel": null
      }
    },
    {
      "aliasColors": {},
      "bars": false,
      "dashLength": 10,
      "dashes": false,
      "datasource": "openet-fw-stats",
      "fill": 0,
      "gridPos": {
        "h": 5,
        "w": 12,
        "x": 0,
        "y": 25
      },
      "id": 81,
      "interval": "1m",
      "legend": {
        "avg": false,
        "current": false,
        "max": false,
        "min": false,
        "show": true,
        "total": false,
        "values": false
      },
      "lines": true,
      "linewidth": 1,
      "links": [],
      "nullPointMode": "null as zero",
      "percentage": false,
      "pointradius": 5,
      "points": false,
      "renderer": "flot",
      "seriesOverrides": [],
      "spaceLength": 10,
      "stack": false,
      "steppedLine": false,
      "targets": [
        {
          "bucketAggs": [
            {
              "fake": true,
              "field": "INSTALLATION_ID.keyword",
              "id": "3",
              "settings": {
                "min_doc_count": 1,
                "order": "desc",
                "orderBy": "_term",
                "size": "10"
              },
              "type": "terms"
            },
            {
              "fake": true,
              "field": "beat.hostname.keyword",
              "id": "4",
              "settings": {
                "min_doc_count": 1,
                "order": "desc",
                "orderBy": "_term",
                "size": "10"
              },
              "type": "terms"
            },
            {
              "fake": true,
              "id": "4",
              "query": "*",
              "settings": {
                "filters": [
                  {
                    "label": "notifyRequest Latency",
                    "query": "STATISTIC_NAME.keyword:DRBRestNotificationToDiameterRoundtripPerformance"
                  }
                ]
              },
              "type": "filters"
            },
            {
              "field": "@timestamp",
              "id": "2",
              "settings": {
                "interval": "65s",
                "min_doc_count": 0,
                "trimEdges": 0
              },
              "type": "date_histogram"
            }
          ],
          "hide": false,
          "metrics": [
            {
              "field": "AVERAGE_LATENCY",
              "id": "1",
              "meta": {},
              "settings": {},
              "type": "max"
            }
          ],
          "query": "INSTALLATION_ID.keyword: $INSTALLATION_ID",
          "refId": "A",
          "timeField": "@timestamp"
        }
      ],
      "thresholds": [],
      "timeFrom": null,
      "timeShift": null,
      "title": "Charging (DRB) notifyRequest Roundtrip Latency",
      "tooltip": {
        "shared": true,
        "sort": 0,
        "value_type": "individual"
      },
      "type": "graph",
      "xaxis": {
        "buckets": null,
        "mode": "time",
        "name": null,
        "show": true,
        "values": []
      },
      "yaxes": [
        {
          "format": "µs",
          "label": null,
          "logBase": 1,
          "max": null,
          "min": null,
          "show": true
        },
        {
          "format": "short",
          "label": null,
          "logBase": 1,
          "max": null,
          "min": null,
          "show": true
        }
      ],
      "yaxis": {
        "align": false,
        "alignLevel": null
      }
    },
    {
      "cacheTimeout": null,
      "colorBackground": false,
      "colorValue": true,
      "colors": [
        "rgb(32, 28, 36)",
        "rgb(32, 28, 36)",
        "#d44a3a"
      ],
      "datasource": "openet-fw-stats",
      "format": "µs",
      "gauge": {
        "maxValue": 100,
        "minValue": 0,
        "show": false,
        "thresholdLabels": false,
        "thresholdMarkers": true
      },
      "gridPos": {
        "h": 5,
        "w": 12,
        "x": 12,
        "y": 25
      },
      "id": 82,
      "interval": "1m",
      "links": [],
      "mappingType": 1,
      "mappingTypes": [
        {
          "name": "value to text",
          "value": 1
        },
        {
          "name": "range to text",
          "value": 2
        }
      ],
      "maxDataPoints": 100,
      "nullPointMode": "connected",
      "nullText": null,
      "postfix": "",
      "postfixFontSize": "50%",
      "prefix": "",
      "prefixFontSize": "50%",
      "rangeMaps": [
        {
          "from": "null",
          "text": "N/A",
          "to": "null"
        }
      ],
      "sparkline": {
        "fillColor": "#0a437c",
        "full": false,
        "lineColor": "#0a437c",
        "show": true
      },
      "tableColumn": "",
      "targets": [
        {
          "bucketAggs": [
            {
              "fake": true,
              "id": "3",
              "query": "*",
              "settings": {
                "filters": [
                  {
                    "label": "Roundtrip latency",
                    "query": "STATISTIC_NAME.keyword:DRBRestNotificationToDiameterRoundtripPerformance"
                  }
                ]
              },
              "type": "filters"
            },
            {
              "field": "@timestamp",
              "id": "2",
              "settings": {
                "interval": "auto",
                "min_doc_count": 0,
                "trimEdges": 0
              },
              "type": "date_histogram"
            }
          ],
          "metrics": [
            {
              "field": "MAX_LATENCY",
              "id": "1",
              "meta": {},
              "settings": {},
              "type": "max"
            }
          ],
          "query": "INSTALLATION_ID.keyword: $INSTALLATION_ID",
          "refId": "A",
          "timeField": "@timestamp"
        }
      ],
      "thresholds": "2,1800000",
      "title": "Charging (DRB) notifyRequest Roundtrip Max Latency",
      "type": "singlestat",
      "valueFontSize": "80%",
      "valueMaps": [
        {
          "op": "=",
          "text": "N/A",
          "value": "null"
        }
      ],
      "valueName": "max"
    },
    {
      "aliasColors": {},
      "bars": false,
      "dashLength": 10,
      "dashes": false,
      "datasource": "openet-fw-stats",
      "fill": 1,
      "gridPos": {
        "h": 4,
        "w": 12,
        "x": 0,
        "y": 30
      },
      "id": 10,
      "interval": "1m",
      "legend": {
        "avg": false,
        "current": false,
        "max": false,
        "min": false,
        "show": false,
        "total": false,
        "values": false
      },
      "lines": true,
      "linewidth": 1,
      "links": [],
      "nullPointMode": "null as zero",
      "percentage": false,
      "pointradius": 5,
      "points": false,
      "renderer": "flot",
      "seriesOverrides": [],
      "spaceLength": 10,
      "stack": false,
      "steppedLine": false,
      "targets": [
        {
          "bucketAggs": [
            {
              "fake": true,
              "field": "INSTALLATION_ID.keyword",
              "id": "4",
              "settings": {
                "min_doc_count": 1,
                "order": "desc",
                "orderBy": "_term",
                "size": "10"
              },
              "type": "terms"
            },
            {
              "fake": true,
              "field": "beat.hostname.keyword",
              "id": "3",
              "settings": {
                "min_doc_count": 1,
                "order": "desc",
                "orderBy": "_term",
                "size": "10"
              },
              "type": "terms"
            },
            {
              "field": "@timestamp",
              "id": "2",
              "settings": {
                "interval": "65s",
                "min_doc_count": 0,
                "trimEdges": 0
              },
              "type": "date_histogram"
            }
          ],
          "metrics": [
            {
              "field": "NUMERIC_VALUE",
              "id": "1",
              "meta": {},
              "settings": {},
              "type": "sum"
            }
          ],
          "query": "INSTALLATION_ID.keyword: $INSTALLATION_ID AND STATISTIC_NAME.keyword: DBP_Diameter_Too_Busy_Count",
          "refId": "A",
          "timeField": "@timestamp"
        }
      ],
      "thresholds": [],
      "timeFrom": null,
      "timeShift": null,
      "title": "Charging (DRB) Diameter Too Busy Count",
      "tooltip": {
        "shared": true,
        "sort": 0,
        "value_type": "individual"
      },
      "type": "graph",
      "xaxis": {
        "buckets": null,
        "mode": "time",
        "name": null,
        "show": true,
        "values": []
      },
      "yaxes": [
        {
          "format": "short",
          "label": null,
          "logBase": 1,
          "max": null,
          "min": null,
          "show": true
        },
        {
          "format": "short",
          "label": null,
          "logBase": 1,
          "max": null,
          "min": null,
          "show": true
        }
      ],
      "yaxis": {
        "align": false,
        "alignLevel": null
      }
    },
    {
      "aliasColors": {},
      "bars": false,
      "dashLength": 10,
      "dashes": false,
      "datasource": "openet-fw-stats",
      "fill": 1,
      "gridPos": {
        "h": 4,
        "w": 12,
        "x": 12,
        "y": 30
      },
      "id": 6,
      "interval": "1m",
      "legend": {
        "avg": false,
        "current": false,
        "max": false,
        "min": false,
        "show": true,
        "total": false,
        "values": false
      },
      "lines": true,
      "linewidth": 1,
      "links": [],
      "nullPointMode": "null as zero",
      "percentage": false,
      "pointradius": 5,
      "points": false,
      "renderer": "flot",
      "seriesOverrides": [],
      "spaceLength": 10,
      "stack": false,
      "steppedLine": false,
      "targets": [
        {
          "bucketAggs": [
            {
              "fake": true,
              "field": "INSTALLATION_ID.keyword",
              "id": "3",
              "settings": {
                "min_doc_count": 1,
                "order": "desc",
                "orderBy": "_term",
                "size": "10"
              },
              "type": "terms"
            },
            {
              "fake": true,
              "field": "beat.hostname.keyword",
              "id": "4",
              "settings": {
                "min_doc_count": 1,
                "order": "desc",
                "orderBy": "_term",
                "size": "10"
              },
              "type": "terms"
            },
            {
              "field": "@timestamp",
              "id": "2",
              "settings": {
                "interval": "65s",
                "min_doc_count": 0,
                "trimEdges": 0
              },
              "type": "date_histogram"
            }
          ],
          "hide": false,
          "metrics": [
            {
              "field": "NUMERIC_VALUE",
              "id": "1",
              "meta": {},
              "settings": {},
              "type": "sum"
            }
          ],
          "query": "INSTALLATION_ID.keyword: $INSTALLATION_ID AND STATISTIC_NAME.keyword: DBP_Diameter_Error_Count",
          "refId": "A",
          "timeField": "@timestamp"
        }
      ],
      "thresholds": [],
      "timeFrom": null,
      "timeShift": null,
      "title": "Charging (DRB) Diameter Error Count",
      "tooltip": {
        "shared": true,
        "sort": 0,
        "value_type": "individual"
      },
      "type": "graph",
      "xaxis": {
        "buckets": null,
        "mode": "time",
        "name": null,
        "show": true,
        "values": []
      },
      "yaxes": [
        {
          "format": "locale",
          "label": null,
          "logBase": 1,
          "max": null,
          "min": null,
          "show": true
        },
        {
          "format": "short",
          "label": null,
          "logBase": 1,
          "max": null,
          "min": null,
          "show": true
        }
      ],
      "yaxis": {
        "align": false,
        "alignLevel": null
      }
    },
    {
      "aliasColors": {},
      "bars": false,
      "dashLength": 10,
      "dashes": false,
      "datasource": "openet-fw-stats",
      "fill": 1,
      "gridPos": {
        "h": 4,
        "w": 12,
        "x": 0,
        "y": 34
      },
      "id": 76,
      "interval": "1m",
      "legend": {
        "avg": false,
        "current": false,
        "max": false,
        "min": false,
        "show": true,
        "total": false,
        "values": false
      },
      "lines": true,
      "linewidth": 1,
      "links": [],
      "nullPointMode": "null as zero",
      "percentage": false,
      "pointradius": 5,
      "points": false,
      "renderer": "flot",
      "seriesOverrides": [],
      "spaceLength": 10,
      "stack": false,
      "steppedLine": false,
      "targets": [
        {
          "bucketAggs": [
            {
              "fake": true,
              "field": "INSTALLATION_ID.keyword",
              "id": "3",
              "settings": {
                "min_doc_count": 1,
                "order": "desc",
                "orderBy": "_term",
                "size": "10"
              },
              "type": "terms"
            },
            {
              "fake": true,
              "field": "beat.hostname.keyword",
              "id": "4",
              "settings": {
                "min_doc_count": 1,
                "order": "desc",
                "orderBy": "_term",
                "size": "10"
              },
              "type": "terms"
            },
            {
              "field": "@timestamp",
              "id": "2",
              "settings": {
                "interval": "65s",
                "min_doc_count": 0,
                "trimEdges": 0
              },
              "type": "date_histogram"
            }
          ],
          "hide": false,
          "metrics": [
            {
              "field": "NUMERIC_VALUE",
              "id": "1",
              "meta": {},
              "settings": {},
              "type": "sum"
            }
          ],
          "query": "INSTALLATION_ID.keyword: $INSTALLATION_ID AND STATISTIC_NAME.keyword: Count_REST_Response_Errors",
          "refId": "A",
          "timeField": "@timestamp"
        }
      ],
      "thresholds": [],
      "timeFrom": null,
      "timeShift": null,
      "title": "Charging (DRB) REST Error Count",
      "tooltip": {
        "shared": true,
        "sort": 0,
        "value_type": "individual"
      },
      "type": "graph",
      "xaxis": {
        "buckets": null,
        "mode": "time",
        "name": null,
        "show": true,
        "values": []
      },
      "yaxes": [
        {
          "format": "locale",
          "label": null,
          "logBase": 1,
          "max": null,
          "min": null,
          "show": true
        },
        {
          "format": "short",
          "label": null,
          "logBase": 1,
          "max": null,
          "min": null,
          "show": true
        }
      ],
      "yaxis": {
        "align": false,
        "alignLevel": null
      }
    },
    {
      "aliasColors": {},
      "bars": false,
      "dashLength": 10,
      "dashes": false,
      "datasource": "openet-fw-stats",
      "fill": 1,
      "gridPos": {
        "h": 4,
        "w": 12,
        "x": 12,
        "y": 34
      },
      "id": 77,
      "interval": "1m",
      "legend": {
        "avg": false,
        "current": false,
        "max": false,
        "min": false,
        "show": true,
        "total": false,
        "values": false
      },
      "lines": true,
      "linewidth": 1,
      "links": [],
      "nullPointMode": "null as zero",
      "percentage": false,
      "pointradius": 5,
      "points": false,
      "renderer": "flot",
      "seriesOverrides": [],
      "spaceLength": 10,
      "stack": false,
      "steppedLine": false,
      "targets": [
        {
          "bucketAggs": [
            {
              "fake": true,
              "field": "INSTALLATION_ID.keyword",
              "id": "3",
              "settings": {
                "min_doc_count": 1,
                "order": "desc",
                "orderBy": "_term",
                "size": "10"
              },
              "type": "terms"
            },
            {
              "fake": true,
              "field": "beat.hostname.keyword",
              "id": "4",
              "settings": {
                "min_doc_count": 1,
                "order": "desc",
                "orderBy": "_term",
                "size": "10"
              },
              "type": "terms"
            },
            {
              "field": "@timestamp",
              "id": "2",
              "settings": {
                "interval": "65s",
                "min_doc_count": 0,
                "trimEdges": 0
              },
              "type": "date_histogram"
            }
          ],
          "hide": false,
          "metrics": [
            {
              "field": "NUMERIC_VALUE",
              "id": "1",
              "meta": {},
              "settings": {},
              "type": "sum"
            }
          ],
          "query": "INSTALLATION_ID.keyword: $INSTALLATION_ID AND STATISTIC_NAME.keyword: Count_REST_notifyRequests",
          "refId": "A",
          "timeField": "@timestamp"
        }
      ],
      "thresholds": [],
      "timeFrom": null,
      "timeShift": null,
      "title": "Charging (DRB) notifyRequest Count",
      "tooltip": {
        "shared": true,
        "sort": 0,
        "value_type": "individual"
      },
      "type": "graph",
      "xaxis": {
        "buckets": null,
        "mode": "time",
        "name": null,
        "show": true,
        "values": []
      },
      "yaxes": [
        {
          "format": "locale",
          "label": null,
          "logBase": 1,
          "max": null,
          "min": null,
          "show": true
        },
        {
          "format": "short",
          "label": null,
          "logBase": 1,
          "max": null,
          "min": null,
          "show": true
        }
      ],
      "yaxis": {
        "align": false,
        "alignLevel": null
      }
    },
    {
      "aliasColors": {},
      "bars": false,
      "dashLength": 10,
      "dashes": false,
      "datasource": "openet-fw-stats",
      "fill": 1,
      "gridPos": {
        "h": 4,
        "w": 12,
        "x": 0,
        "y": 38
      },
      "id": 69,
      "interval": "1m",
      "legend": {
        "avg": false,
        "current": false,
        "max": false,
        "min": false,
        "show": false,
        "total": false,
        "values": false
      },
      "lines": true,
      "linewidth": 1,
      "links": [],
      "nullPointMode": "null as zero",
      "percentage": false,
      "pointradius": 5,
      "points": false,
      "renderer": "flot",
      "seriesOverrides": [],
      "spaceLength": 10,
      "stack": false,
      "steppedLine": false,
      "targets": [
        {
          "bucketAggs": [
            {
              "fake": true,
              "field": "INSTALLATION_ID.keyword",
              "id": "4",
              "settings": {
                "min_doc_count": 1,
                "order": "desc",
                "orderBy": "_term",
                "size": "10"
              },
              "type": "terms"
            },
            {
              "fake": true,
              "field": "beat.hostname.keyword",
              "id": "3",
              "settings": {
                "min_doc_count": 1,
                "order": "desc",
                "orderBy": "_term",
                "size": "10"
              },
              "type": "terms"
            },
            {
              "field": "@timestamp",
              "id": "2",
              "settings": {
                "interval": "65s",
                "min_doc_count": 0,
                "trimEdges": 0
              },
              "type": "date_histogram"
            }
          ],
          "metrics": [
            {
              "field": "NUMERIC_VALUE",
              "id": "1",
              "meta": {},
              "settings": {},
              "type": "sum"
            }
          ],
          "query": "INSTALLATION_ID.keyword: $INSTALLATION_ID AND STATISTIC_NAME.keyword: DBP_Diameter_Unable_To_Deliver_Count",
          "refId": "A",
          "timeField": "@timestamp"
        }
      ],
      "thresholds": [],
      "timeFrom": null,
      "timeShift": null,
      "title": "Charging (DRB) Diameter Unable To Deliver Count",
      "tooltip": {
        "shared": true,
        "sort": 0,
        "value_type": "individual"
      },
      "type": "graph",
      "xaxis": {
        "buckets": null,
        "mode": "time",
        "name": null,
        "show": true,
        "values": []
      },
      "yaxes": [
        {
          "format": "short",
          "label": null,
          "logBase": 1,
          "max": null,
          "min": null,
          "show": true
        },
        {
          "format": "short",
          "label": null,
          "logBase": 1,
          "max": null,
          "min": null,
          "show": true
        }
      ],
      "yaxis": {
        "align": false,
        "alignLevel": null
      }
    },
    {
      "aliasColors": {},
      "bars": false,
      "dashLength": 10,
      "dashes": false,
      "datasource": "openet-fw-stats",
      "fill": 1,
      "gridPos": {
        "h": 4,
        "w": 12,
        "x": 12,
        "y": 38
      },
      "id": 78,
      "interval": "1m",
      "legend": {
        "avg": false,
        "current": false,
        "max": false,
        "min": false,
        "show": true,
        "total": false,
        "values": false
      },
      "lines": true,
      "linewidth": 1,
      "links": [],
      "nullPointMode": "null as zero",
      "percentage": false,
      "pointradius": 5,
      "points": false,
      "renderer": "flot",
      "seriesOverrides": [],
      "spaceLength": 10,
      "stack": false,
      "steppedLine": false,
      "targets": [
        {
          "bucketAggs": [
            {
              "fake": true,
              "field": "INSTALLATION_ID.keyword",
              "id": "3",
              "settings": {
                "min_doc_count": 1,
                "order": "desc",
                "orderBy": "_term",
                "size": "10"
              },
              "type": "terms"
            },
            {
              "fake": true,
              "field": "beat.hostname.keyword",
              "id": "4",
              "settings": {
                "min_doc_count": 1,
                "order": "desc",
                "orderBy": "_term",
                "size": "10"
              },
              "type": "terms"
            },
            {
              "field": "@timestamp",
              "id": "2",
              "settings": {
                "interval": "65s",
                "min_doc_count": 0,
                "trimEdges": 0
              },
              "type": "date_histogram"
            }
          ],
          "hide": false,
          "metrics": [
            {
              "field": "NUMERIC_VALUE",
              "id": "1",
              "meta": {},
              "settings": {},
              "type": "sum"
            }
          ],
          "query": "INSTALLATION_ID.keyword: $INSTALLATION_ID AND STATISTIC_NAME.keyword: Count_RAR",
          "refId": "A",
          "timeField": "@timestamp"
        }
      ],
      "thresholds": [],
      "timeFrom": null,
      "timeShift": null,
      "title": "Charging (DRB) RAR Count",
      "tooltip": {
        "shared": true,
        "sort": 0,
        "value_type": "individual"
      },
      "type": "graph",
      "xaxis": {
        "buckets": null,
        "mode": "time",
        "name": null,
        "show": true,
        "values": []
      },
      "yaxes": [
        {
          "format": "locale",
          "label": null,
          "logBase": 1,
          "max": null,
          "min": null,
          "show": true
        },
        {
          "format": "short",
          "label": null,
          "logBase": 1,
          "max": null,
          "min": null,
          "show": true
        }
      ],
      "yaxis": {
        "align": false,
        "alignLevel": null
      }
    },
    {
      "aliasColors": {},
      "bars": false,
      "dashLength": 10,
      "dashes": false,
      "datasource": "openet-fw-stats",
      "fill": 1,
      "gridPos": {
        "h": 4,
        "w": 12,
        "x": 12,
        "y": 42
      },
      "id": 79,
      "interval": "1m",
      "legend": {
        "avg": false,
        "current": false,
        "max": false,
        "min": false,
        "show": true,
        "total": false,
        "values": false
      },
      "lines": true,
      "linewidth": 1,
      "links": [],
      "nullPointMode": "null as zero",
      "percentage": false,
      "pointradius": 5,
      "points": false,
      "renderer": "flot",
      "seriesOverrides": [],
      "spaceLength": 10,
      "stack": false,
      "steppedLine": false,
      "targets": [
        {
          "bucketAggs": [
            {
              "fake": true,
              "field": "INSTALLATION_ID.keyword",
              "id": "3",
              "settings": {
                "min_doc_count": 1,
                "order": "desc",
                "orderBy": "_term",
                "size": "10"
              },
              "type": "terms"
            },
            {
              "fake": true,
              "field": "beat.hostname.keyword",
              "id": "4",
              "settings": {
                "min_doc_count": 1,
                "order": "desc",
                "orderBy": "_term",
                "size": "10"
              },
              "type": "terms"
            },
            {
              "field": "@timestamp",
              "id": "2",
              "settings": {
                "interval": "65s",
                "min_doc_count": 0,
                "trimEdges": 0
              },
              "type": "date_histogram"
            }
          ],
          "hide": false,
          "metrics": [
            {
              "field": "NUMERIC_VALUE",
              "id": "1",
              "meta": {},
              "settings": {},
              "type": "sum"
            }
          ],
          "query": "INSTALLATION_ID.keyword: $INSTALLATION_ID AND STATISTIC_NAME.keyword: Count_ASR",
          "refId": "A",
          "timeField": "@timestamp"
        }
      ],
      "thresholds": [],
      "timeFrom": null,
      "timeShift": null,
      "title": "Charging (DRB) ASR Count",
      "tooltip": {
        "shared": true,
        "sort": 0,
        "value_type": "individual"
      },
      "type": "graph",
      "xaxis": {
        "buckets": null,
        "mode": "time",
        "name": null,
        "show": true,
        "values": []
      },
      "yaxes": [
        {
          "format": "locale",
          "label": null,
          "logBase": 1,
          "max": null,
          "min": null,
          "show": true
        },
        {
          "format": "short",
          "label": null,
          "logBase": 1,
          "max": null,
          "min": null,
          "show": true
        }
      ],
      "yaxis": {
        "align": false,
        "alignLevel": null
      }
    }
  ],
  "refresh": false,
  "schemaVersion": 16,
  "style": "dark",
  "tags": [
    "APP ",
    "HOME"
  ],
  "templating": {
    "list": [
      {
        "allValue": null,
        "current": {
          "text": "All",
          "value": "$__all"
        },
        "datasource": "openet-fw-stats",
        "hide": 0,
        "includeAll": true,
        "label": "Node",
        "multi": true,
        "name": "INSTALLATION_ID",
        "options": [],
        "query": "{\"find\": \"terms\", \"field\": \"INSTALLATION_ID.keyword\"}",
        "refresh": 1,
        "regex": "",
        "sort": 1,
        "tagValuesQuery": "",
        "tags": [],
        "tagsQuery": "",
        "type": "query",
        "useTags": false
      }
    ]
  },
  "time": {
    "from": "2019-11-12T07:21:28.762Z",
    "to": "2019-11-12T09:12:00.341Z"
  },
  "timepicker": {
    "refresh_intervals": [
      "5s",
      "10s",
      "30s",
      "1m",
      "5m",
      "15m",
      "30m",
      "1h",
      "2h",
      "1d"
    ],
    "time_options": [
      "5m",
      "15m",
      "1h",
      "6h",
      "12h",
      "24h",
      "2d",
      "7d",
      "30d"
    ]
  },
  "timezone": "",
  "title": "Statistics - Charging (DRB)",
  "uid": "_2F398Yy7",
  "version": 10
}
