[
{
      "version":"{{ .Values.rsync.configVersion }}", 
      "sourcePath":"rsync@{{ .Values.rsyncd.service.name }}.{{ .Release.Namespace }}.svc{{ template "appendDnsPostfix" . }}:/source_data/ocrt/product-config/offercatalog/config",
      "destinationPath":"/opt/forge/ro/home/config/runtime_config/business_rules/offercatalog/OCRuntime/CTE_Ro/"
},

{
      "version":"{{ .Values.rsync.configVersion }}", 
      "sourcePath":"rsync@{{ .Values.rsyncd.service.name }}.{{ .Release.Namespace }}.svc{{ template "appendDnsPostfix" . }}:/source_data/ocrt/product-config/timeofday/config",
      "destinationPath":"/opt/forge/ro/home/config/runtime_config/business_rules/timeofday/"
},

{
      "version":"{{ .Values.rsync.configVersion }}", 
      "sourcePath":"rsync@{{ .Values.rsyncd.service.name }}.{{ .Release.Namespace }}.svc{{ template "appendDnsPostfix" . }}:/source_data/ro/framework/Statistics_Management",
      "destinationPath":"/opt/forge/ro/home/config/runtime_config/framework/"
},

{
      "version":"{{ .Values.rsync.configVersion }}", 
      "sourcePath":"rsync@{{ .Values.rsyncd.service.name }}.{{ .Release.Namespace }}.svc{{ template "appendDnsPostfix" . }}:/source_data/ro/ABNumber",
      "destinationPath":"/opt/forge/ro/home/config/"
},

{
      "version":"{{ .Values.rsync.configVersion }}", 
      "sourcePath":"rsync@{{ .Values.rsyncd.service.name }}.{{ .Release.Namespace }}.svc{{ template "appendDnsPostfix" . }}:/source_data/ro/RoamingZoneDetermination",
      "destinationPath":"/opt/forge/ro/home/"
}

]

