{"attributes":{"description":"","kibanaSavedObjectMeta":{"searchSourceJSON":"{\"query\":{\"query\":\"\",\"language\":\"kuery\"},\"filter\":[]}"},"title":"SigM CPU Limits Usage Time Series","uiStateJSON":"{}","version":1,"visState":"{\"type\":\"metrics\",\"aggs\":[],\"params\":{\"id\":\"61ca57f0-469d-11e7-af02-69e470af7417\",\"type\":\"timeseries\",\"series\":[{\"id\":\"61ca57f1-469d-11e7-af02-69e470af7417\",\"color\":\"#68BC00\",\"split_mode\":\"terms\",\"split_color_mode\":\"kibana\",\"metrics\":[{\"id\":\"61ca57f2-469d-11e7-af02-69e470af7417\",\"type\":\"avg\",\"field\":\"kubernetes.container.cpu.usage.limit.pct\"}],\"separate_axis\":0,\"axis_position\":\"right\",\"formatter\":\"percent\",\"chart_type\":\"line\",\"line_width\":1,\"point_size\":1,\"fill\":0.5,\"stacked\":\"none\",\"label\":\"CPU Limits Usage\",\"type\":\"timeseries\",\"terms_field\":\"kubernetes.labels.statefulset_kubernetes_io/pod-name\"}],\"time_field\":\"@timestamp\",\"index_pattern\":\"metricbeat*\",\"interval\":\"\",\"axis_position\":\"left\",\"axis_formatter\":\"number\",\"axis_scale\":\"normal\",\"show_legend\":1,\"show_grid\":1,\"default_index_pattern\":\"openet-watcher*\",\"default_timefield\":\"@timestamp\",\"isModelInvalid\":false,\"filter\":{\"query\":\"kubernetes.labels.app: signaling-manager\",\"language\":\"kuery\"}},\"title\":\"SigM CPU Limits Usage Time Series\"}"},"id":"0d4946e0-0928-11eb-a752-efe51c5f3a9a","migrationVersion":{"visualization":"7.8.0"},"references":[],"type":"visualization","updated_at":"2020-10-23T08:37:58.207Z","version":"WzI1MzMsMV0="}
{"attributes":{"description":"","kibanaSavedObjectMeta":{"searchSourceJSON":"{\"query\":{\"language\":\"kuery\",\"query\":\"\"},\"filter\":[]}"},"title":"SigM Memory Limits Usage Time Series","uiStateJSON":"{}","version":1,"visState":"{\"type\":\"metrics\",\"aggs\":[],\"params\":{\"id\":\"61ca57f0-469d-11e7-af02-69e470af7417\",\"type\":\"timeseries\",\"series\":[{\"id\":\"61ca57f1-469d-11e7-af02-69e470af7417\",\"color\":\"#68BC00\",\"split_mode\":\"terms\",\"split_color_mode\":\"kibana\",\"metrics\":[{\"id\":\"61ca57f2-469d-11e7-af02-69e470af7417\",\"type\":\"avg\",\"field\":\"kubernetes.container.memory.usage.limit.pct\"}],\"separate_axis\":0,\"axis_position\":\"right\",\"formatter\":\"percent\",\"chart_type\":\"line\",\"line_width\":1,\"point_size\":1,\"fill\":0.5,\"stacked\":\"none\",\"label\":\"CPU Limits Usage\",\"type\":\"timeseries\",\"terms_field\":\"kubernetes.labels.statefulset_kubernetes_io/pod-name\"}],\"time_field\":\"@timestamp\",\"index_pattern\":\"metricbeat*\",\"interval\":\"\",\"axis_position\":\"left\",\"axis_formatter\":\"number\",\"axis_scale\":\"normal\",\"show_legend\":1,\"show_grid\":1,\"default_index_pattern\":\"openet-watcher*\",\"default_timefield\":\"@timestamp\",\"isModelInvalid\":false,\"filter\":{\"query\":\"kubernetes.labels.app: signaling-manager\",\"language\":\"kuery\"}},\"title\":\"SigM Memory Limits Usage Time Series\"}"},"id":"38c309a0-0928-11eb-a752-efe51c5f3a9a","migrationVersion":{"visualization":"7.8.0"},"references":[],"type":"visualization","updated_at":"2020-10-23T08:37:58.207Z","version":"WzI1MzQsMV0="}
{"attributes":{"description":"","kibanaSavedObjectMeta":{"searchSourceJSON":"{\"query\":{\"query\":\"\",\"language\":\"kuery\"},\"filter\":[]}"},"title":"Signaling-Manager Inbound Traffic","uiStateJSON":"{}","version":1,"visState":"{\"type\":\"metrics\",\"aggs\":[],\"params\":{\"id\":\"61ca57f0-469d-11e7-af02-69e470af7417\",\"type\":\"timeseries\",\"series\":[{\"id\":\"61ca57f1-469d-11e7-af02-69e470af7417\",\"color\":\"#68BC00\",\"split_mode\":\"terms\",\"split_color_mode\":\"kibana\",\"metrics\":[{\"id\":\"61ca57f2-469d-11e7-af02-69e470af7417\",\"type\":\"avg\",\"field\":\"kubernetes.pod.network.rx.bytes\"}],\"separate_axis\":0,\"axis_position\":\"right\",\"formatter\":\"bytes\",\"chart_type\":\"line\",\"line_width\":1,\"point_size\":1,\"fill\":0.5,\"stacked\":\"none\",\"label\":\"\",\"type\":\"timeseries\",\"terms_field\":\"kubernetes.labels.statefulset_kubernetes_io/pod-name\"}],\"time_field\":\"@timestamp\",\"index_pattern\":\"metricbeat*\",\"interval\":\"\",\"axis_position\":\"left\",\"axis_formatter\":\"number\",\"axis_scale\":\"normal\",\"show_legend\":1,\"show_grid\":1,\"default_index_pattern\":\"openet-watcher*\",\"default_timefield\":\"@timestamp\",\"isModelInvalid\":false,\"filter\":{\"query\":\"kubernetes.labels.app: signaling-manager\",\"language\":\"kuery\"}},\"title\":\"Signaling-Manager Inbound Traffic\"}"},"id":"7f577800-0929-11eb-a752-efe51c5f3a9a","migrationVersion":{"visualization":"7.8.0"},"references":[],"type":"visualization","updated_at":"2020-10-23T08:37:58.207Z","version":"WzI1MzUsMV0="}
{"attributes":{"description":"","kibanaSavedObjectMeta":{"searchSourceJSON":"{\"query\":{\"language\":\"kuery\",\"query\":\"\"},\"filter\":[]}"},"title":"Signaling-Manager Outbound Traffic","uiStateJSON":"{}","version":1,"visState":"{\"type\":\"metrics\",\"aggs\":[],\"params\":{\"id\":\"61ca57f0-469d-11e7-af02-69e470af7417\",\"type\":\"timeseries\",\"series\":[{\"id\":\"61ca57f1-469d-11e7-af02-69e470af7417\",\"color\":\"#68BC00\",\"split_mode\":\"terms\",\"split_color_mode\":\"kibana\",\"metrics\":[{\"id\":\"61ca57f2-469d-11e7-af02-69e470af7417\",\"type\":\"avg\",\"field\":\"kubernetes.pod.network.tx.bytes\"}],\"separate_axis\":0,\"axis_position\":\"right\",\"formatter\":\"bytes\",\"chart_type\":\"line\",\"line_width\":1,\"point_size\":1,\"fill\":0.5,\"stacked\":\"none\",\"label\":\"\",\"type\":\"timeseries\",\"terms_field\":\"kubernetes.labels.statefulset_kubernetes_io/pod-name\"}],\"time_field\":\"@timestamp\",\"index_pattern\":\"metricbeat*\",\"interval\":\"\",\"axis_position\":\"left\",\"axis_formatter\":\"number\",\"axis_scale\":\"normal\",\"show_legend\":1,\"show_grid\":1,\"default_index_pattern\":\"openet-watcher*\",\"default_timefield\":\"@timestamp\",\"isModelInvalid\":false,\"filter\":{\"query\":\"kubernetes.labels.app: signaling-manager\",\"language\":\"kuery\"}},\"title\":\"Signaling-Manager Outbound Traffic\"}"},"id":"a6e35ec0-0929-11eb-a752-efe51c5f3a9a","migrationVersion":{"visualization":"7.8.0"},"references":[],"type":"visualization","updated_at":"2020-10-23T08:37:58.207Z","version":"WzI1MzYsMV0="}
{"attributes":{"description":"","kibanaSavedObjectMeta":{"searchSourceJSON":"{\"query\":{\"query\":\"\",\"language\":\"kuery\"},\"filter\":[]}"},"title":"SigM Async Send TPS","uiStateJSON":"{}","version":1,"visState":"{\"type\":\"metrics\",\"aggs\":[],\"params\":{\"id\":\"61ca57f0-469d-11e7-af02-69e470af7417\",\"type\":\"metric\",\"series\":[{\"id\":\"61ca57f1-469d-11e7-af02-69e470af7417\",\"color\":\"#68BC00\",\"split_mode\":\"terms\",\"split_color_mode\":\"kibana\",\"metrics\":[{\"id\":\"61ca57f2-469d-11e7-af02-69e470af7417\",\"type\":\"avg\",\"field\":\"TPS\"}],\"separate_axis\":0,\"axis_position\":\"right\",\"formatter\":\"number\",\"chart_type\":\"line\",\"line_width\":1,\"point_size\":1,\"fill\":0.5,\"stacked\":\"none\",\"label\":\"Async Send TPS\",\"terms_field\":\"ASSOCIATED_NAME.keyword\"}],\"time_field\":\"@timestamp\",\"index_pattern\":\"openet-fw-stats*\",\"interval\":\"\",\"axis_position\":\"left\",\"axis_formatter\":\"number\",\"axis_scale\":\"normal\",\"show_legend\":1,\"show_grid\":1,\"default_index_pattern\":\"openet-fw-stats*\",\"default_timefield\":\"@timestamp\",\"isModelInvalid\":false,\"gauge_color_rules\":[{\"id\":\"bebc20c0-07b4-11eb-9ad9-b79f7e19403c\"}],\"gauge_width\":10,\"gauge_inner_width\":10,\"gauge_style\":\"half\",\"background_color_rules\":[{\"id\":\"bf1cde60-07b4-11eb-9ad9-b79f7e19403c\"}],\"filter\":{\"query\":\"PROCESS_NAME : CTE_SIGM AND STATISTIC_NAME : DBP_Send_Async_Latency\",\"language\":\"kuery\"},\"time_range_mode\":\"entire_time_range\"},\"title\":\"SigM Async Send TPS\"}"},"id":"f0ebb920-07b4-11eb-a1b3-4b51578921b5","migrationVersion":{"visualization":"7.8.0"},"references":[],"type":"visualization","updated_at":"2020-10-23T10:13:33.823Z","version":"WzE1MzUxLDFd"}
{"attributes":{"description":"","kibanaSavedObjectMeta":{"searchSourceJSON":"{\"query\":{\"query\":\"\",\"language\":\"kuery\"},\"filter\":[]}"},"title":"SigM Async Send Average Latency","uiStateJSON":"{}","version":1,"visState":"{\"type\":\"metrics\",\"aggs\":[],\"params\":{\"id\":\"61ca57f0-469d-11e7-af02-69e470af7417\",\"type\":\"timeseries\",\"series\":[{\"id\":\"61ca57f1-469d-11e7-af02-69e470af7417\",\"color\":\"#68BC00\",\"split_mode\":\"terms\",\"split_color_mode\":\"kibana\",\"metrics\":[{\"id\":\"61ca57f2-469d-11e7-af02-69e470af7417\",\"type\":\"avg\",\"field\":\"AVERAGE_LATENCY\"}],\"separate_axis\":0,\"axis_position\":\"right\",\"formatter\":\"us,ms,\",\"chart_type\":\"line\",\"line_width\":1,\"point_size\":1,\"fill\":0.5,\"stacked\":\"none\",\"label\":\"Async Send Average Latency\",\"type\":\"timeseries\",\"terms_field\":\"ASSOCIATED_NAME.keyword\",\"value_template\":\"{{value}} ms\"}],\"time_field\":\"@timestamp\",\"index_pattern\":\"openet-fw-stats*\",\"interval\":\"auto\",\"axis_position\":\"left\",\"axis_formatter\":\"number\",\"axis_scale\":\"normal\",\"show_legend\":1,\"show_grid\":1,\"default_index_pattern\":\"openet-fw-stats*\",\"default_timefield\":\"@timestamp\",\"isModelInvalid\":false,\"filter\":{\"query\":\"PROCESS_NAME : CTE_SIGM AND STATISTIC_NAME : DBP_Send_Async_Latency\",\"language\":\"kuery\"},\"legend_position\":\"bottom\"},\"title\":\"SigM Async Send Average Latency\"}"},"id":"b1eae0c0-07b4-11eb-a1b3-4b51578921b5","migrationVersion":{"visualization":"7.8.0"},"references":[],"type":"visualization","updated_at":"2020-10-23T09:18:31.102Z","version":"Wzk2NDgsMV0="}
{"attributes":{"expression":"kibana\n| kibana_context  \n  query=\"{\\\"language\\\":\\\"kuery\\\",\\\"query\\\":\\\"PROCESS_NAME : CTE_SIGM AND STATISTIC_NAME : DBP_Diameter_Error_Count\\\"}\" filters=\"[]\"\n| lens_merge_tables layerIds=\"40b7b8ea-f883-432d-90b9-bab990358cc6\" \n  tables={esaggs index=\"openet-fw-stats\" metricsAtAllLevels=true partialRows=true includeFormatHints=true timeFields=\"@timestamp\" aggConfigs=\"[{\\\"id\\\":\\\"2e46f1f7-dcd8-4199-80ed-883ab16bf16c\\\",\\\"enabled\\\":true,\\\"type\\\":\\\"date_histogram\\\",\\\"schema\\\":\\\"segment\\\",\\\"params\\\":{\\\"field\\\":\\\"@timestamp\\\",\\\"useNormalizedEsInterval\\\":true,\\\"interval\\\":\\\"auto\\\",\\\"drop_partials\\\":false,\\\"min_doc_count\\\":0,\\\"extended_bounds\\\":{}}},{\\\"id\\\":\\\"1287bf8b-1168-415e-8c78-3e377f1f34fe\\\",\\\"enabled\\\":true,\\\"type\\\":\\\"avg\\\",\\\"schema\\\":\\\"metric\\\",\\\"params\\\":{\\\"field\\\":\\\"NUMERIC_VALUE\\\",\\\"missing\\\":0}},{\\\"id\\\":\\\"f12c254e-353e-4c3b-a127-9fc6c6f07e3e\\\",\\\"enabled\\\":true,\\\"type\\\":\\\"max\\\",\\\"schema\\\":\\\"metric\\\",\\\"params\\\":{\\\"field\\\":\\\"NUMERIC_VALUE\\\",\\\"missing\\\":0}}]\" | lens_rename_columns idMap=\"{\\\"col-0-2e46f1f7-dcd8-4199-80ed-883ab16bf16c\\\":{\\\"dataType\\\":\\\"date\\\",\\\"isBucketed\\\":true,\\\"label\\\":\\\"@timestamp\\\",\\\"operationType\\\":\\\"date_histogram\\\",\\\"params\\\":{\\\"interval\\\":\\\"auto\\\"},\\\"scale\\\":\\\"interval\\\",\\\"sourceField\\\":\\\"@timestamp\\\",\\\"suggestedPriority\\\":1,\\\"id\\\":\\\"2e46f1f7-dcd8-4199-80ed-883ab16bf16c\\\"},\\\"col-1-1287bf8b-1168-415e-8c78-3e377f1f34fe\\\":{\\\"dataType\\\":\\\"number\\\",\\\"isBucketed\\\":false,\\\"label\\\":\\\"Error Count Average\\\",\\\"operationType\\\":\\\"avg\\\",\\\"scale\\\":\\\"ratio\\\",\\\"sourceField\\\":\\\"NUMERIC_VALUE\\\",\\\"id\\\":\\\"1287bf8b-1168-415e-8c78-3e377f1f34fe\\\"},\\\"col-2-f12c254e-353e-4c3b-a127-9fc6c6f07e3e\\\":{\\\"dataType\\\":\\\"number\\\",\\\"isBucketed\\\":false,\\\"label\\\":\\\"Error Count Max\\\",\\\"operationType\\\":\\\"max\\\",\\\"scale\\\":\\\"ratio\\\",\\\"sourceField\\\":\\\"NUMERIC_VALUE\\\",\\\"id\\\":\\\"f12c254e-353e-4c3b-a127-9fc6c6f07e3e\\\"}}\"}\n| lens_xy_chart xTitle=\"@timestamp\" yTitle=\"Error Count Average\" legend={lens_xy_legendConfig isVisible=true position=\"right\"} \n  layers={lens_xy_layer layerId=\"40b7b8ea-f883-432d-90b9-bab990358cc6\" hide=false xAccessor=\"2e46f1f7-dcd8-4199-80ed-883ab16bf16c\" yScaleType=\"linear\" xScaleType=\"time\" isHistogram=true  seriesType=\"bar_stacked\" accessors=\"1287bf8b-1168-415e-8c78-3e377f1f34fe\" accessors=\"f12c254e-353e-4c3b-a127-9fc6c6f07e3e\" columnToLabel=\"{\\\"1287bf8b-1168-415e-8c78-3e377f1f34fe\\\":\\\"Error Count Average\\\",\\\"f12c254e-353e-4c3b-a127-9fc6c6f07e3e\\\":\\\"Error Count Max\\\"}\"}","state":{"datasourceMetaData":{"filterableIndexPatterns":[{"id":"openet-fw-stats","title":"openet-fw-stats*"}]},"datasourceStates":{"indexpattern":{"currentIndexPatternId":"openet-fw-stats","layers":{"40b7b8ea-f883-432d-90b9-bab990358cc6":{"columnOrder":["2e46f1f7-dcd8-4199-80ed-883ab16bf16c","1287bf8b-1168-415e-8c78-3e377f1f34fe","f12c254e-353e-4c3b-a127-9fc6c6f07e3e"],"columns":{"1287bf8b-1168-415e-8c78-3e377f1f34fe":{"dataType":"number","isBucketed":false,"label":"Error Count Average","operationType":"avg","scale":"ratio","sourceField":"NUMERIC_VALUE"},"2e46f1f7-dcd8-4199-80ed-883ab16bf16c":{"dataType":"date","isBucketed":true,"label":"@timestamp","operationType":"date_histogram","params":{"interval":"auto"},"scale":"interval","sourceField":"@timestamp","suggestedPriority":1},"f12c254e-353e-4c3b-a127-9fc6c6f07e3e":{"dataType":"number","isBucketed":false,"label":"Error Count Max","operationType":"max","scale":"ratio","sourceField":"NUMERIC_VALUE"}},"indexPatternId":"openet-fw-stats"}}}},"filters":[],"query":{"language":"kuery","query":"PROCESS_NAME : CTE_SIGM AND STATISTIC_NAME : DBP_Diameter_Error_Count"},"visualization":{"layers":[{"accessors":["1287bf8b-1168-415e-8c78-3e377f1f34fe","f12c254e-353e-4c3b-a127-9fc6c6f07e3e"],"layerId":"40b7b8ea-f883-432d-90b9-bab990358cc6","position":"top","seriesType":"bar_stacked","showGridlines":false,"xAccessor":"2e46f1f7-dcd8-4199-80ed-883ab16bf16c"}],"legend":{"isVisible":true,"position":"right"},"preferredSeriesType":"bar_stacked","title":"Empty XY chart"}},"title":"SigM Diameter Error Count","visualizationType":"lnsXY"},"id":"fe8b9e50-07b5-11eb-a1b3-4b51578921b5","migrationVersion":{"lens":"7.8.0"},"references":[],"type":"lens","updated_at":"2020-10-23T08:37:58.207Z","version":"WzI1MzksMV0="}
{"attributes":{"description":"","kibanaSavedObjectMeta":{"searchSourceJSON":"{\"query\":{\"language\":\"kuery\",\"query\":\"\"},\"filter\":[]}"},"title":"SigM DBP_Diameter_Too_Busy_Count","uiStateJSON":"{}","version":1,"visState":"{\"type\":\"metrics\",\"aggs\":[],\"params\":{\"id\":\"61ca57f0-469d-11e7-af02-69e470af7417\",\"type\":\"timeseries\",\"series\":[{\"id\":\"61ca57f1-469d-11e7-af02-69e470af7417\",\"color\":\"#68BC00\",\"split_mode\":\"terms\",\"split_color_mode\":\"kibana\",\"metrics\":[{\"id\":\"61ca57f2-469d-11e7-af02-69e470af7417\",\"type\":\"avg\",\"field\":\"NUMERIC_VALUE\"}],\"separate_axis\":0,\"axis_position\":\"right\",\"formatter\":\"number\",\"chart_type\":\"line\",\"line_width\":1,\"point_size\":1,\"fill\":0.5,\"stacked\":\"none\",\"label\":\"Diameter Too Busy Count\",\"type\":\"timeseries\",\"terms_field\":\"ASSOCIATED_NAME.keyword\"}],\"time_field\":\"@timestamp\",\"index_pattern\":\"openet-fw-stats*\",\"interval\":\"auto\",\"axis_position\":\"left\",\"axis_formatter\":\"number\",\"axis_scale\":\"normal\",\"show_legend\":1,\"show_grid\":1,\"default_index_pattern\":\"openet-watcher*\",\"default_timefield\":\"@timestamp\",\"isModelInvalid\":false,\"filter\":{\"query\":\"PROCESS_NAME: CTE_SIGM AND STATISTIC_NAME : DBP_Diameter_Too_Busy_Count\",\"language\":\"kuery\"}},\"title\":\"SigM DBP_Diameter_Too_Busy_Count\"}"},"id":"9669b9a0-084c-11eb-9d53-fbf17a7edbed","migrationVersion":{"visualization":"7.8.0"},"references":[],"type":"visualization","updated_at":"2020-10-23T08:37:58.207Z","version":"WzI1NDAsMV0="}
{"attributes":{"description":"","kibanaSavedObjectMeta":{"searchSourceJSON":"{\"query\":{\"query\":\"\",\"language\":\"kuery\"},\"filter\":[]}"},"title":"SigM PCFThreadPoolJobWorkPerformance","uiStateJSON":"{}","version":1,"visState":"{\"type\":\"metrics\",\"aggs\":[],\"params\":{\"id\":\"61ca57f0-469d-11e7-af02-69e470af7417\",\"type\":\"timeseries\",\"series\":[{\"id\":\"61ca57f1-469d-11e7-af02-69e470af7417\",\"color\":\"#68BC00\",\"split_mode\":\"terms\",\"split_color_mode\":\"kibana\",\"metrics\":[{\"id\":\"61ca57f2-469d-11e7-af02-69e470af7417\",\"type\":\"avg\",\"field\":\"AVERAGE_LATENCY\"}],\"separate_axis\":0,\"axis_position\":\"right\",\"formatter\":\"us,ms,\",\"chart_type\":\"line\",\"line_width\":1,\"point_size\":1,\"fill\":0.5,\"stacked\":\"none\",\"label\":\"Threadpool Job Latency\",\"type\":\"timeseries\",\"terms_field\":\"ASSOCIATED_NAME.keyword\"}],\"time_field\":\"@timestamp\",\"index_pattern\":\"openet-fw-stats*\",\"interval\":\"auto\",\"axis_position\":\"left\",\"axis_formatter\":\"number\",\"axis_scale\":\"normal\",\"show_legend\":1,\"show_grid\":1,\"default_index_pattern\":\"openet-fw-stats*\",\"default_timefield\":\"@timestamp\",\"isModelInvalid\":false,\"filter\":{\"query\":\"PROCESS_NAME: CTE_SIGM AND STATISTIC_NAME : PCFThreadPoolJobWorkPerformance\",\"language\":\"kuery\"}},\"title\":\"SigM PCFThreadPoolJobWorkPerformance\"}"},"id":"47c7b860-084c-11eb-9d53-fbf17a7edbed","migrationVersion":{"visualization":"7.8.0"},"references":[],"type":"visualization","updated_at":"2020-10-23T08:52:06.429Z","version":"WzQ5MDgsMV0="}
{"attributes":{"description":"","hits":0,"kibanaSavedObjectMeta":{"searchSourceJSON":"{\"query\":{\"language\":\"kuery\",\"query\":\"\"},\"filter\":[]}"},"optionsJSON":"{\"hidePanelTitles\":false,\"useMargins\":true}","panelsJSON":"[{\"embeddableConfig\":{},\"gridData\":{\"h\":15,\"i\":\"688bf117-5d2f-495f-ab60-f44f1d46ab1c\",\"w\":24,\"x\":0,\"y\":0},\"panelIndex\":\"688bf117-5d2f-495f-ab60-f44f1d46ab1c\",\"version\":\"7.8.0\",\"panelRefName\":\"panel_0\"},{\"embeddableConfig\":{},\"gridData\":{\"h\":15,\"i\":\"e3af05ce-a6ef-44bb-880c-160536dc1776\",\"w\":24,\"x\":24,\"y\":0},\"panelIndex\":\"e3af05ce-a6ef-44bb-880c-160536dc1776\",\"version\":\"7.8.0\",\"panelRefName\":\"panel_1\"},{\"embeddableConfig\":{},\"gridData\":{\"h\":11,\"i\":\"51c3f308-25dc-4d64-9688-1574dc63e507\",\"w\":24,\"x\":0,\"y\":15},\"panelIndex\":\"51c3f308-25dc-4d64-9688-1574dc63e507\",\"version\":\"7.8.0\",\"panelRefName\":\"panel_2\"},{\"embeddableConfig\":{},\"gridData\":{\"h\":11,\"i\":\"939a2205-98c2-4644-997c-06ff9889cc3e\",\"w\":24,\"x\":24,\"y\":15},\"panelIndex\":\"939a2205-98c2-4644-997c-06ff9889cc3e\",\"version\":\"7.8.0\",\"panelRefName\":\"panel_3\"},{\"embeddableConfig\":{},\"gridData\":{\"h\":13,\"i\":\"b675a68c-ad27-421d-9d50-cdebee25316c\",\"w\":24,\"x\":0,\"y\":26},\"panelIndex\":\"b675a68c-ad27-421d-9d50-cdebee25316c\",\"version\":\"7.8.0\",\"panelRefName\":\"panel_4\"},{\"embeddableConfig\":{},\"gridData\":{\"h\":13,\"i\":\"138efa85-c73d-4e45-9d83-010b5c3dc549\",\"w\":24,\"x\":24,\"y\":26},\"panelIndex\":\"138efa85-c73d-4e45-9d83-010b5c3dc549\",\"version\":\"7.8.0\",\"panelRefName\":\"panel_5\"},{\"embeddableConfig\":{},\"gridData\":{\"h\":13,\"i\":\"f1920cda-1a86-4aa3-865f-1bec653a6876\",\"w\":24,\"x\":0,\"y\":39},\"panelIndex\":\"f1920cda-1a86-4aa3-865f-1bec653a6876\",\"version\":\"7.8.0\",\"panelRefName\":\"panel_6\"},{\"embeddableConfig\":{},\"gridData\":{\"h\":13,\"i\":\"b3b155e4-91e3-42bb-8c41-b16fdd44d45e\",\"w\":24,\"x\":24,\"y\":39},\"panelIndex\":\"b3b155e4-91e3-42bb-8c41-b16fdd44d45e\",\"version\":\"7.8.0\",\"panelRefName\":\"panel_7\"},{\"embeddableConfig\":{},\"gridData\":{\"h\":13,\"i\":\"d80e69a5-807d-4b00-b0fc-dc007de48323\",\"w\":24,\"x\":0,\"y\":52},\"panelIndex\":\"d80e69a5-807d-4b00-b0fc-dc007de48323\",\"version\":\"7.8.0\",\"panelRefName\":\"panel_8\"}]","timeRestore":false,"title":"Signaling Manager Dashboard","version":1},"id":"bef228d0-084c-11eb-9d53-fbf17a7edbed","migrationVersion":{"dashboard":"7.3.0"},"references":[{"id":"0d4946e0-0928-11eb-a752-efe51c5f3a9a","name":"panel_0","type":"visualization"},{"id":"38c309a0-0928-11eb-a752-efe51c5f3a9a","name":"panel_1","type":"visualization"},{"id":"7f577800-0929-11eb-a752-efe51c5f3a9a","name":"panel_2","type":"visualization"},{"id":"a6e35ec0-0929-11eb-a752-efe51c5f3a9a","name":"panel_3","type":"visualization"},{"id":"f0ebb920-07b4-11eb-a1b3-4b51578921b5","name":"panel_4","type":"visualization"},{"id":"b1eae0c0-07b4-11eb-a1b3-4b51578921b5","name":"panel_5","type":"visualization"},{"id":"fe8b9e50-07b5-11eb-a1b3-4b51578921b5","name":"panel_6","type":"lens"},{"id":"9669b9a0-084c-11eb-9d53-fbf17a7edbed","name":"panel_7","type":"visualization"},{"id":"47c7b860-084c-11eb-9d53-fbf17a7edbed","name":"panel_8","type":"visualization"}],"type":"dashboard","updated_at":"2020-10-23T10:13:39.051Z","version":"WzE1MzUyLDFd"}
{"exportedCount":10,"missingRefCount":0,"missingReferences":[]}