[
{
      "version":"{{ .Values.rsync.configVersion }}", 
      "sourcePath":"rsync@{{ .Values.rsyncd.service.name }}.{{ .Release.Namespace }}.svc{{ template "appendDnsPostfix" . }}:/source_data/ocrt/product-config/offercatalog/config",
      "destinationPath":"/opt/forge/provisioning/home/config/runtime_config/business_rules/offercatalog/OCRuntime/CTE_Provisioning/"
},

{
      "version":"{{ .Values.rsync.configVersion }}", 
      "sourcePath":"rsync@{{ .Values.rsyncd.service.name }}.{{ .Release.Namespace }}.svc{{ template "appendDnsPostfix" . }}:/source_data/ocrt/product-config/timeofday/config",
      "destinationPath":"/opt/forge/provisioning/home/config/runtime_config/business_rules/timeofday/"
},

{
      "version":"{{ .Values.rsync.configVersion }}", 
      "sourcePath":"rsync@{{ .Values.rsyncd.service.name }}.{{ .Release.Namespace }}.svc{{ template "appendDnsPostfix" . }}:/source_data/provisioning/framework/Statistics_Management",
      "destinationPath":"/opt/forge/provisioning/home/config/runtime_config/framework/"
}

]
